%YAML 1.1
%TAG !u! tag:unity3d.com,2011:
--- !u!1001 &5011427159790148655
PrefabInstance:
  m_ObjectHideFlags: 0
  serializedVersion: 2
  m_Modification:
    m_TransformParent: {fileID: 0}
    m_Modifications:
    - target: {fileID: 1209199135775896, guid: 0925cce6ef15b5a47a8fc3ceebdb21af, type: 3}
      propertyPath: m_Name
      value: SchoolBus Variant
      objectReference: {fileID: 0}
    - target: {fileID: 1209199135775896, guid: 0925cce6ef15b5a47a8fc3ceebdb21af, type: 3}
      propertyPath: m_IsActive
      value: 1
      objectReference: {fileID: 0}
    - target: {fileID: 4045738573685120, guid: 0925cce6ef15b5a47a8fc3ceebdb21af, type: 3}
      propertyPath: m_RootOrder
      value: 0
      objectReference: {fileID: 0}
    - target: {fileID: 4045738573685120, guid: 0925cce6ef15b5a47a8fc3ceebdb21af, type: 3}
      propertyPath: m_LocalPosition.x
      value: 2.7499998
      objectReference: {fileID: 0}
    - target: {fileID: 4045738573685120, guid: 0925cce6ef15b5a47a8fc3ceebdb21af, type: 3}
      propertyPath: m_LocalPosition.y
      value: -0.10000001
      objectReference: {fileID: 0}
    - target: {fileID: 4045738573685120, guid: 0925cce6ef15b5a47a8fc3ceebdb21af, type: 3}
      propertyPath: m_LocalPosition.z
      value: -3.2500007
      objectReference: {fileID: 0}
    - target: {fileID: 4045738573685120, guid: 0925cce6ef15b5a47a8fc3ceebdb21af, type: 3}
      propertyPath: m_LocalRotation.w
      value: 1
      objectReference: {fileID: 0}
    - target: {fileID: 4045738573685120, guid: 0925cce6ef15b5a47a8fc3ceebdb21af, type: 3}
      propertyPath: m_LocalRotation.x
      value: -0
      objectReference: {fileID: 0}
    - target: {fileID: 4045738573685120, guid: 0925cce6ef15b5a47a8fc3ceebdb21af, type: 3}
      propertyPath: m_LocalRotation.y
      value: -0
      objectReference: {fileID: 0}
    - target: {fileID: 4045738573685120, guid: 0925cce6ef15b5a47a8fc3ceebdb21af, type: 3}
      propertyPath: m_LocalRotation.z
      value: -0
      objectReference: {fileID: 0}
    - target: {fileID: 4045738573685120, guid: 0925cce6ef15b5a47a8fc3ceebdb21af, type: 3}
      propertyPath: m_LocalEulerAnglesHint.x
      value: 0
      objectReference: {fileID: 0}
    - target: {fileID: 4045738573685120, guid: 0925cce6ef15b5a47a8fc3ceebdb21af, type: 3}
      propertyPath: m_LocalEulerAnglesHint.y
      value: -90
      objectReference: {fileID: 0}
    - target: {fileID: 4045738573685120, guid: 0925cce6ef15b5a47a8fc3ceebdb21af, type: 3}
      propertyPath: m_LocalEulerAnglesHint.z
      value: 0
      objectReference: {fileID: 0}
    m_RemovedComponents: []
  m_SourcePrefab: {fileID: 100100000, guid: 0925cce6ef15b5a47a8fc3ceebdb21af, type: 3}
--- !u!1 &5010362001004298423 stripped
GameObject:
  m_CorrespondingSourceObject: {fileID: 1209199135775896, guid: 0925cce6ef15b5a47a8fc3ceebdb21af,
    type: 3}
  m_PrefabInstance: {fileID: 5011427159790148655}
  m_PrefabAsset: {fileID: 0}
--- !u!114 &-2148448666470752461
MonoBehaviour:
  m_ObjectHideFlags: 0
  m_CorrespondingSourceObject: {fileID: 0}
  m_PrefabInstance: {fileID: 0}
  m_PrefabAsset: {fileID: 0}
  m_GameObject: {fileID: 5010362001004298423}
  m_Enabled: 1
  m_EditorHideFlags: 0
  m_Script: {fileID: 11500000, guid: 77eb66a63ff7de346bbba749f99af08a, type: 3}
  m_Name: 
  m_EditorClassIdentifier: 
  lifeTime: 30
--- !u!114 &1681514709
MonoBehaviour:
  m_ObjectHideFlags: 0
  m_CorrespondingSourceObject: {fileID: 0}
  m_PrefabInstance: {fileID: 0}
  m_PrefabAsset: {fileID: 0}
  m_GameObject: {fileID: 5010362001004298423}
  m_Enabled: 1
  m_EditorHideFlags: 0
  m_Script: {fileID: 11500000, guid: 2bf6209c831c89c42b9db601cb814150, type: 3}
  m_Name: 
  m_EditorClassIdentifier: 
  safeDistance: 8
  carSpeed: 5
